ID,De,A,Code,Remarques
1,0,500,B01.01,
1,500,1000,B01.0201,
1,1010,1050,B01.0501,
1,1050,1070,B01.0302,
1,1070,1500,B01.0401,
1,1500,2000,B01.0201,
2,0,150,B01.01,
2,160,290,B01.0202,
2,310,350,B01.0505,
2,350,1000,B01.01,