Erhebung_Code	Stellen_Code	Datum	ArtNr_MSK_WF	Artname_Lateinisch	Abs_Deckung	Rel_Haeufigkeit_Kuenstlich	Unsicherheit_Bestimmung	PhaenZustand_Bluete	PhaenZustand_Fruechte	Grund_Bereinigung
200_21-08-2017	200	21/08/2017	382200	Scrophularia umbrosa Dumort.	0.4		4	1		Qualitaet Bestimmung unzureichend
200_16-08-2016	200	16/08/2016	30000115	Sparganium 1	1		4			Qualitaet Bestimmung unzureichend
200_21-08-2017	200	21/08/2017	30000129		1		1	1		Nicht auf Taxaliste
355_26-05-2016	355	26/05/2016	500005126				2			Nicht auf Taxaliste
463_04-07-2016	463	04/07/2016	500005127				2			Nicht auf Taxaliste
5893_27-06-2016	5893	27/06/2016	500005127				2			Nicht auf Taxaliste
