Erhebung_Code	EINDOL	GSBREITE	BREITENVAR	TIEFENVAR	SOHLVER	SOHLMAT	LBUKVER	LBUKMAT	RBUKVER	RBUKMAT	LUFBEBRE	LUFBEBEWMAT	LUFBEBEW	RUFBEBRE	RUFBEBEWMAT	RUFBEBEW	UMLAND_L	UMLAND_R
355_26.05.2016	0	6.5	2	2	2	5	4	6	3	2	5	2	1	5	2	1	8	4
353_23.06.2016	0	4	3	3	6	1	6	2	6	2	6	3	1	5	3	1	4	4
5724_27.06.2016	0	2	2	2	1	0	1	0	1	0	6	5	2	6	5	2	4	4
463_04.07.2016	0	5	2	1	1	0	3	2	3	2	2	3	1	5	3	1	8	4
200_16.08.2016	0	8	1	1	2	1	2	2	2	2	10	5	2	10	5	2	8	8
200_21.08.2017	0	6	1	1	2	1	2	2	2	2	6	5	2	7	5	2	8	8
5640_18.07.2017	0	12	3	2	1	1	5	5	5	5	3	3	1	5	3	1	8	4
9222_04.08.2017	0	3	3	2	1	0	1	0	1	0	3	5	2	3	5	2	4	4
5893_27.06.2016	0	4	1	1	1	0	1	0	1	0	15	2	1	15	2	1	1	1
9186_17.08.2017	0	6	3	3	6	4	6	7	6	7	8	2	1	8	2	1	4	4
