Stellen_Code	Datum	Abfluss_konsolidiert	Gefaelle_konsolidiert	Tiefe_MittWstand	Beschattung	Stroemung_Mittlere_SchaetzFeld	Substrat_Bloecke_40	Substrat_GrSteine_20_40	Substrat_KlSteine_6_20	Substrat_Grobkies_2_6	Substrat_FeinMittelkies_0_2	Substrat_Sand	Substrat_SchluffTon	Substrat_Schlamm	Substrat_HumusTorf	Substrat_Kuenstlich
355	26/05/2016	186	3.13	0.2	80	0.4	78	1	4	10	5					2
353	23/06/2016	469	0.646	0.3	0	0.3	5	15	50	20	10
5724	27/06/2016	132	0	0.5	0	0.4			5	25	60			10
463	04/07/2016	359	0.58	0.25	50	0.3	0.5	1.5	18	50	20	10
200	16/08/2016	567	0.42857	0.5	15	0.3		1	25	42	20	1	10			1
200	21/08/2017	567	0.42857	0.7	10	0.25	0.5	2.5	6	50	30	8		2		1
5640	18/07/2017	4440	0.30434	0.55	50	0.4		5	30	40	14	10				1
9222	04/08/2017	300	0.9	0.4	0	0.05	0	5	5	0	0	85	5	0	0	0
5893	27/06/2016	104	4.625	0.2	70	0.8	2	8	55	20	10	5
9186	17/08/2017	655	0.1	0.25	50	0.2	5	2	1	1	1	60	30	0	0	0
